Manipulating Data: Logical Statements & dplyr
…
Logical statements

Goal: Subset rows or columns

logical statement - useful for indexing an R object

iris[iris$Species == "setosa", ]

## # A tibble: 50 x 5
##   Sepal.Length Sepal.Width Petal.Length Petal.Width Species
##          <dbl>       <dbl>        <dbl>       <dbl> <fct>  
## 1          5.1         3.5          1.4         0.2 setosa 
## 2          4.9         3            1.4         0.2 setosa 
## 3          4.7         3.2          1.3         0.2 setosa 
## 4          4.6         3.1          1.5         0.2 setosa 
## 5          5           3.6          1.4         0.2 setosa 
## # ... with 45 more rows

Logical statements

Goal: Subset rows or columns

logical statement - useful for indexing an R object

Similarly, can use subset function

subset(iris, Species == "setosa")

## # A tibble: 50 x 5
##   Sepal.Length Sepal.Width Petal.Length Petal.Width Species
##          <dbl>       <dbl>        <dbl>       <dbl> <fct>  
## 1          5.1         3.5          1.4         0.2 setosa 
## 2          4.9         3            1.4         0.2 setosa 
## 3          4.7         3.2          1.3         0.2 setosa 
## 4          4.6         3.1          1.5         0.2 setosa 
## 5          5           3.6          1.4         0.2 setosa 
## # ... with 45 more rows

dplyr

Goal: Subset rows or columns

logical statement - useful for indexing an R object

Similarly, can use filter from dplyr (installed with tidyverse)

filter(iris, Species == "setosa")

## # A tibble: 50 x 5
##   Sepal.Length Sepal.Width Petal.Length Petal.Width Species
##          <dbl>       <dbl>        <dbl>       <dbl> <fct>  
## 1          5.1         3.5          1.4         0.2 setosa 
## 2          4.9         3            1.4         0.2 setosa 
## 3          4.7         3.2          1.3         0.2 setosa 
## 4          4.6         3.1          1.5         0.2 setosa 
## 5          5           3.6          1.4         0.2 setosa 
## # ... with 45 more rows
…
dplyr

Batting <- as_tibble(Batting)
Batting

## # A tibble: 107,429 x 22
##   playerID yearID stint teamID lgID      G    AB     R     H   X2B   X3B    HR
##   <chr>     <int> <int> <fct>  <fct> <int> <int> <int> <int> <int> <int> <int>
## 1 abercda   1871     1 TRO    NA        1     4     0     0     0     0     0
## 2 addybo01   1871     1 RC1    NA       25   118    30    32     6     0     0
## 3 allisar   1871     1 CL1    NA       29   137    28    40     4     5     0
## 4 allisdo   1871     1 WS3    NA       27   133    28    44    10     2     2
## 5 ansonca   1871     1 RC1    NA       25   120    29    39    11     3     0
## #  with 107,424 more rows, and 10 more variables: RBI <int>, SB <int>,
## #   CS <int>, BB <int>, SO <int>, IBB <int>, HBP <int>, SH <int>, SF <int>,
## #   GIDP <int>

If data read in with haven, readxl, or readr probably in this format!

dplyr

filter() - subset rows

Use filter() to obtain only PIT data

filter(Batting, teamID == "PIT")

## # A tibble: 4,817 x 22
##   playerID yearID stint teamID lgID      G    AB     R     H   X2B   X3B    HR
##   <chr>     <int> <int> <fct>  <fct> <int> <int> <int> <int> <int> <int> <int>
## 1 barklsa~   1887     1 PIT    NL       89   340    44    76    10     4     1
## 2 beeched~   1887     1 PIT    NL       41   169    15    41     8     0     2
## 3 bishobi~   1887     1 PIT    NL        3     9     0     0     0     0     0
## 4 brownto~   1887     1 PIT    NL       47   192    30    47     3     4     0
## 5 carrofr~   1887     1 PIT    NL      102   421    71   138    24    15     6
## # ... with 4,812 more rows, and 10 more variables: RBI <int>, SB <int>,
## #   CS <int>, BB <int>, SO <int>, IBB <int>, HBP <int>, SH <int>, SF <int>,
## #   GIDP <int>

dplyr

filter() - subset rows

Multiple filters

filter(Batting, teamID == "PIT" & yearID == 2000)

## # A tibble: 46 x 22
##   playerID yearID stint teamID lgID      G    AB     R     H   X2B   X3B    HR
##   <chr>     <int> <int> <fct>  <fct> <int> <int> <int> <int> <int> <int> <int>
## 1 anderji~   2000     1 PIT    NL       27    50     5     7     1     0     0
## 2 arroybr~   2000     1 PIT    NL       21    21     2     3     2     0     0
## 3 avenbr01   2000     1 PIT    NL       72   148    18    37    11     0     5
## 4 benjami~   2000     1 PIT    NL       93   233    28    63    18     2     2
## 5 bensokr~   2000     1 PIT    NL       32    65     3     6     2     0     0
## # ... with 41 more rows, and 10 more variables: RBI <int>, SB <int>, CS <int>,
## #   BB <int>, SO <int>, IBB <int>, HBP <int>, SH <int>, SF <int>, GIDP <int>
…
Aside: Piping or Chaining

Applying multiple functions: nesting hard to parse!

Piping or Chaining with %>% operator helps

arrange(select(filter(Batting, teamID == "PIT"), playerID, G, X2B), desc(X2B))

## # A tibble: 4,817 x 3
##   playerID      G   X2B
##   <chr>     <int> <int>
## 1 wanerpa01   154    62
## 2 wanerpa01   148    53
## 3 sanchfr01   157    53
## 4 wanerpa01   152    50
## 5 comorad01   152    47
## # ... with 4,812 more rows

Aside: Piping or Chaining

Applying multiple functions: nesting hard to parse!

Piping or Chaining with %>% operator helps

Batting %>% filter(teamID == "PIT") %>% select(playerID, G, X2B) %>% arrange(desc(X2B)) 

## # A tibble: 4,817 x 3
##   playerID      G   X2B
##   <chr>     <int> <int>
## 1 wanerpa01   154    62
## 2 wanerpa01   148    53
## 3 sanchfr01   157    53
## 4 wanerpa01   152    50
## 5 comorad01   152    47
## # ... with 4,812 more rows
…
dplyr

select() - subset columns

May want to reorder variables

#reorder
Batting %>% select(playerID, HR, everything())

## # A tibble: 105,861 x 22
##   playerID    HR yearID stint teamID lgID      G    AB     R     H   X2B   X3B
##   <chr>    <int>  <int> <int> <fct>  <fct> <int> <int> <int> <int> <int> <int>
## 1 abercda     0   1871     1 TRO    NA        1     4     0     0     0     0
## 2 addybo01     0   1871     1 RC1    NA       25   118    30    32     6     0
## 3 allisar     0   1871     1 CL1    NA       29   137    28    40     4     5
## 4 allisdo     2   1871     1 WS3    NA       27   133    28    44    10     2
## 5 ansonca     0   1871     1 RC1    NA       25   120    29    39    11     3
## #  with 105,856 more rows, and 10 more variables: RBI <int>, SB <int>,
## #   CS <int>, BB <int>, SO <int>, IBB <int>, HBP <int>, SH <int>, SF <int>,
## #   GIDP <int>

dplyr

rename() - rename variables

#rename our previous
Batting %>% 
  select(starts_with("X"), ends_with("ID"), G) %>% 
  rename("Doubles" = X2B, "Triples" = X3B)

## # A tibble: 105,861 x 7
##   Doubles Triples playerID  yearID teamID lgID      G
##     <int>   <int> <chr>      <int> <fct>  <fct> <int>
## 1       0       0 abercda01   1871 TRO    NA        1
## 2       6       0 addybo01    1871 RC1    NA       25
## 3       4       5 allisar01   1871 CL1    NA       29
## 4      10       2 allisdo01   1871 WS3    NA       27
## 5      11       3 ansonca01   1871 RC1    NA       25
## #  with 105,856 more rows
…
