Manipulating Data: Creating New Variables
…
transmute() - create new data frame with created variable(s)

Syntax:

mutate(data, newVarName = functionOfData, newVarName2 = functionOfData, ...)

Creating New Variables

Consider a data set on movie ratings

library(fivethirtyeight)
fandango

## # A tibble: 146 x 23
##   film   year rottentomatoes rottentomatoes_ metacritic metacritic_user  imdb
##   <chr> <dbl>          <int>            <int>      <int>           <dbl> <dbl>
## 1 Aven  2015             74               86         66             7.1   7.8
## 2 Cind  2015             85               80         67             7.5   7.1
## 3 Ant-  2015             80               90         64             8.1   7.8
## 4 Do Y  2015             18               84         22             4.7   5.4
## 5 Hot   2015             14               28         29             3.4   5.1
## #  with 141 more rows, and 16 more variables: fandango_stars <dbl>,
## #   fandango_ratingvalue <dbl>, rt_norm <dbl>, rt_user_norm <dbl>,
## #   metacritic_norm <dbl>, metacritic_user_nom <dbl>, imdb_norm <dbl>,
## #   rt_norm_round <dbl>, rt_user_norm_round <dbl>, metacritic_norm_round <dbl>,
## #   metacritic_user_norm_round <dbl>, imdb_norm_round <dbl>,
## #   metacritic_user_vote_count <int>, imdb_user_vote_count <int>,
## #   fandango_votes <int>, fandango_difference <dbl>

Creating New Variables

mutate() - add newly created column(s) to current data frame

##Create an average rottentomatoes score variable
fandango %>% mutate(avgRotten = (rottentomatoes + rottentomatoes_user)/2)

## # A tibble: 146 x 24
##   film   year rottentomatoes rottentomatoes_ metacritic metacritic_user  imdb
##   <chr> <dbl>          <int>            <int>      <int>           <dbl> <dbl>
## 1 Aven  2015             74               86         66             7.1   7.8
## 2 Cind  2015             85               80         67             7.5   7.1
## 3 Ant-  2015             80               90         64             8.1   7.8
## 4 Do Y  2015             18               84         22             4.7   5.4
## 5 Hot   2015             14               28         29             3.4   5.1
## #  with 141 more rows, and 17 more variables: fandango_stars <dbl>,
## #   fandango_ratingvalue <dbl>, rt_norm <dbl>, rt_user_norm <dbl>,
## #   metacritic_norm <dbl>, metacritic_user_nom <dbl>, imdb_norm <dbl>,
## #   rt_norm_round <dbl>, rt_user_norm_round <dbl>, metacritic_norm_round <dbl>,
## #   metacritic_user_norm_round <dbl>, imdb_norm_round <dbl>,
## #   metacritic_user_vote_count <int>, imdb_user_vote_count <int>,
## #   fandango_votes <int>, fandango_difference <dbl>, avgRotten <dbl>

Creating New Variables

mutate() - add newly created column(s) to current data frame

#can't see it!
fandango %>% mutate(avgRotten = (rottentomatoes + rottentomatoes_user)/2) %>% 
  select(film, year, avgRotten, everything())

## # A tibble: 146 x 24
##   film   year avgRotten rottentomatoes rottentomatoes_ metacritic
##   <chr> <dbl>     <dbl>          <int>            <int>      <int>
## 1 Aven  2015      80               74               86         66
## 2 Cind  2015      82.5             85               80         67
## 3 Ant-  2015      85               80               90         64
## 4 Do Y  2015      51               18               84         22
## 5 Hot   2015      21               14               28         29
## #  with 141 more rows, and 18 more variables: metacritic_user <dbl>,
## #   imdb <dbl>, fandango_stars <dbl>, fandango_ratingvalue <dbl>,
## #   rt_norm <dbl>, rt_user_norm <dbl>, metacritic_norm <dbl>,
## #   metacritic_user_nom <dbl>, imdb_norm <dbl>, rt_norm_round <dbl>,
## #   rt_user_norm_round <dbl>, metacritic_norm_round <dbl>,
## #   metacritic_user_norm_round <dbl>, imdb_norm_round <dbl>,
## #   metacritic_user_vote_count <int>, imdb_user_vote_count <int>,
## #   fandango_votes <int>, fandango_difference <dbl>

Creating New Variables

mutate() - add newly created column(s) to current data frame

Add more than one variable

fandango %>% 
  mutate(avgRotten = (rottentomatoes + rottentomatoes_user)/2, 
         avgMeta = (metacritic_norm + metacritic_user_nom)/2) %>%
  select(film, year, avgRotten, avgMeta, everything())

## # A tibble: 146 x 25
##   film   year avgRotten avgMeta rottentomatoes rottentomatoes_ metacritic
##   <chr> <dbl>     <dbl>   <dbl>          <int>            <int>      <int>
## 1 Aven  2015      80      3.42             74               86         66
## 2 Cind  2015      82.5    3.55             85               80         67
## 3 Ant-  2015      85      3.62             80               90         64
## 4 Do Y  2015      51      1.72             18               84         22
## 5 Hot   2015      21      1.58             14               28         29
## #  with 141 more rows, and 18 more variables: metacritic_user <dbl>,
## #   imdb <dbl>, fandango_stars <dbl>, fandango_ratingvalue <dbl>,
## #   rt_norm <dbl>, rt_user_norm <dbl>, metacritic_norm <dbl>,
## #   metacritic_user_nom <dbl>, imdb_norm <dbl>, rt_norm_round <dbl>,
## #   rt_user_norm_round <dbl>, metacritic_norm_round <dbl>,
## #   metacritic_user_norm_round <dbl>, imdb_norm_round <dbl>,
## #   metacritic_user_vote_count <int>, imdb_user_vote_count <int>,
## #   fandango_votes <int>, fandango_difference <dbl>

Creating New Variables

transmute() - create new data frame with created variable(s)

#transmute will keep the new variable(s) only
fandango %>% transmute(avgRotten = (rottentomatoes + rottentomatoes_user)/2)

## # A tibble: 146 x 1
##   avgRotten
##       <dbl>
## 1      80  
## 2      82.5
## 3      85  
## 4      51  
## 5      21  
## #  with 141 more rows

Creating New Variables

transmute() - create new data frame with created variable(s)

#transmute will keep the new variable(s) only
fandango %>% transmute(avgRotten = (rottentomatoes + rottentomatoes_user)/2, 
                       avgMeta = (metacritic_norm + metacritic_user_nom)/2) 

## # A tibble: 146 x 2
##   avgRotten avgMeta
##       <dbl>   <dbl>
## 1      80      3.42
## 2      82.5    3.55
## 3      85      3.62
## 4      51      1.72
## 5      21      1.58
## #  with 141 more rows

Creating New Variables

mutate and transmute can also use ‘window’ functions

Functions that take a vector of values and return another vector of values (see Cheat sheet)

fandango %>% select(rottentomatoes) %>% mutate(cumulativeSum = cumsum(rottentomatoes))

## # A tibble: 146 x 2
##   rottentomatoes cumulativeSum
##            <int>         <int>
## 1             74            74
## 2             85           159
## 3             80           239
## 4             18           257
## 5             14           271
## #  with 141 more rows

Creating New Variables

mutate and transmute can also use some statistical functions

fandango %>% select(rottentomatoes) %>% 
  mutate(avg = mean(rottentomatoes), sd = sd(rottentomatoes))

## # A tibble: 146 x 3
##   rottentomatoes   avg    sd
##            <int> <dbl> <dbl>
## 1             74  60.8  30.2
## 2             85  60.8  30.2
## 3             80  60.8  30.2
## 4             18  60.8  30.2
## 5             14  60.8  30.2
## #  with 141 more rows

Creating New Variables

mutate and transmute can also use some statistical functions

group_by to create summaries for groups (more on this later)

fandango %>% select(year, rottentomatoes) %>% 
  group_by(year) %>% mutate(avg = mean(rottentomatoes), sd = sd(rottentomatoes))

## # A tibble: 146 x 4
## # Groups:   year [2]
##    year rottentomatoes   avg    sd
##   <dbl>          <int> <dbl> <dbl>
## 1  2015             74  58.4  30.3
## 2  2015             85  58.4  30.3
## 3  2015             80  58.4  30.3
## 4  2015             18  58.4  30.3
## 5  2015             14  58.4  30.3
## #  with 141 more rows
…
daily air quality measurements in New York

from May (Day 1) to September (Day 153) in 1973

Creating New Variables

Conditional Execution with If then, If then else

Consider built-in data set airquality

airquality <- as_tibble(airquality)
airquality

## # A tibble: 153 x 6
##   Ozone Solar.R  Wind  Temp Month   Day
##   <int>   <int> <dbl> <int> <int> <int>
## 1    41     190   7.4    67     5     1
## 2    36     118   8      72     5     2
## 3    12     149  12.6    74     5     3
## 4    18     313  11.5    62     5     4
## 5    NA      NA  14.3    56     5     5
## #  with 148 more rows
…
Creating New Variables

Vectorized if else

Can use with transmute() or mutate()

mutate(airquality, status = ifelse(airquality$Wind >= 15, "HighWind",
                                ifelse(airquality$Wind >= 10, "Windy",
                                       ifelse(airquality$Wind >= 6, "LightWind", "Calm")))
)

## # A tibble: 153 x 7
##   Ozone Solar.R  Wind  Temp Month   Day status   
##   <int>   <int> <dbl> <int> <int> <int> <chr>    
## 1    41     190   7.4    67     5     1 LightWind
## 2    36     118   8      72     5     2 LightWind
## 3    12     149  12.6    74     5     3 Windy    
## 4    18     313  11.5    62     5     4 Windy    
## 5    NA      NA  14.3    56     5     5 Windy    
## #  with 148 more rows
…
