Manipulating Data: Reshaping Data
…
values_to = new name(s) for data values (values_to = "temp")

Manipulating Data

Switch to ‘Long’ form with pivot_longer()

cols = columns to pivot to longer format (cols = 2:8)

names_to = new name(s) for columns created (names_to = "day")

values_to = new name(s) for data values (values_to = "temp")

tempsData %>% pivot_longer(cols = 2:8, names_to = "day", values_to = "temp")

## # A tibble: 42 x 3
##   city    day    temp
##   <chr>   <chr> <dbl>
## 1 atlanta sun      81
## 2 atlanta mon      87
## 3 atlanta tue      83
## 4 atlanta wed      79
## 5 atlanta thr      88
## #  with 37 more rows

Reshaping Data

Switch to ‘Long’ form with pivot_longer()

Can provide columns in many ways!

newTempsData <- tempsData %>% 
  pivot_longer(cols = sun:sat, names_to = "day", values_to = "temp")
newTempsData

## # A tibble: 42 x 3
##   city    day    temp
##   <chr>   <chr> <dbl>
## 1 atlanta sun      81
## 2 atlanta mon      87
## 3 atlanta tue      83
## 4 atlanta wed      79
## 5 atlanta thr      88
## #  with 37 more rows
…
Reshaping Data

Separate a column (or combine two columns) using separate() and unite()

Consider data set on air pollution in Chicago

chicagoData <- read_csv("https://www4.stat.ncsu.edu/~online/datasets/Chicago.csv")
chicagoData

## # A tibble: 1,461 x 11
##       X city  date     death  temp dewpoint  pm10    o3  time season  year
##   <dbl> <chr> <chr>    <dbl> <dbl>    <dbl> <dbl> <dbl> <dbl> <chr>  <dbl>
## 1  3654 chic  1/1/1997   137  36       37.5  13.1  5.66  3654 winter  1997
## 2  3655 chic  1/2/1997   123  45       47.2  41.9  5.53  3655 winter  1997
## 3  3656 chic  1/3/1997   127  40       38    27.0  6.29  3656 winter  1997
## 4  3657 chic  1/4/1997   146  51.5     45.5  25.1  7.54  3657 winter  1997
## 5  3658 chic  1/5/1997   102  27       11.2  15.3 20.8   3658 winter  1997
## #  with 1,456 more rows

Manipulating Data

Can parse with separate:

chicagoData %>% separate(date, c("Month", "Day", "Year"), sep = "/", 
                                                 convert = TRUE, remove = FALSE)

## # A tibble: 1,461 x 14
##       X city  date  Month   Day  Year death  temp dewpoint  pm10    o3  time
##   <dbl> <chr> <chr> <int> <int> <int> <dbl> <dbl>    <dbl> <dbl> <dbl> <dbl>
## 1  3654 chic  1/1/     1     1  1997   137  36       37.5  13.1  5.66  3654
## 2  3655 chic  1/2/     1     2  1997   123  45       47.2  41.9  5.53  3655
## 3  3656 chic  1/3/     1     3  1997   127  40       38    27.0  6.29  3656
## 4  3657 chic  1/4/     1     4  1997   146  51.5     45.5  25.1  7.54  3657
## 5  3658 chic  1/5/     1     5  1997   102  27       11.2  15.3 20.8   3658
## #  with 1,456 more rows, and 2 more variables: season <chr>, year <dbl>

Manipulating Data

Can combine with unite:

chicagoData %>% separate(date, c("Month", "Day", "Year"), sep = "/", 
                                                 convert = TRUE, remove = FALSE) %>%
  unite(MonthDay, Month, Day, sep = "-")

## # A tibble: 1,461 x 13
##       X city  date  MonthDay  Year death  temp dewpoint  pm10    o3  time season
##   <dbl> <chr> <chr> <chr>    <int> <dbl> <dbl>    <dbl> <dbl> <dbl> <dbl> <chr> 
## 1  3654 chic  1/1/ 1-1       1997   137  36       37.5  13.1  5.66  3654 winter
## 2  3655 chic  1/2/ 1-2       1997   123  45       47.2  41.9  5.53  3655 winter
## 3  3656 chic  1/3/ 1-3       1997   127  40       38    27.0  6.29  3656 winter
## 4  3657 chic  1/4/ 1-4       1997   146  51.5     45.5  25.1  7.54  3657 winter
## 5  3658 chic  1/5/ 1-5       1997   102  27       11.2  15.3 20.8   3658 winter
## #  with 1,456 more rows, and 1 more variable: year <dbl>
…
