Importing Data: Basics & Delimited Data
…
Reading Delimited Data

Lets read in the ‘neuralgia.csv’ file

neuralgiaData2

## # A tibble: 60 x 5
##   Treatment Sex     Age Duration Pain 
##   <chr>     <chr> <dbl>    <dbl> <chr>
## 1 P         F        68        1 No   
## 2 B         M        74       16 No   
## 3 P         F        67       30 No   
## 4 P         M        66       26 Yes  
## 5 B         F        67       28 No   
## #  with 55 more rows
…
## [1] "spec_tbl_df" "tbl_df"      "tbl"         "data.frame"

tibbles

Behavior slightly different than a standard data frame. No simplification!

neuralgiaData[,1]

##  [1] P B P P B B A B B A A A B A P A P A P B B A A A B P B B P P A A B B B A P B
## [39] B P P P A B A P P A B P P P B A P A P A B A
## Levels: P B A

neuralgiaData2[,1]

## # A tibble: 60 x 1
##   Treatment
##   <chr>    
## 1 P        
## 2 B        
## 3 P        
## 4 P        
## 5 B        
## #  with 55 more rows
…
Reading Delimited Data

Reading clean delimited data pretty easy!

Lets read in the ‘crabs.txt’ file (tab delimited)

Reading Delimited Data

Reading clean delimited data pretty easy!

Lets read in the ‘crabs.txt’ file (tab delimited)

read_tsv("https://www4.stat.ncsu.edu/~online/datasets/crabs.txt")

## # A tibble: 173 x 6
##   color spine width satell weight     y
##   <dbl> <dbl> <dbl>  <dbl>  <dbl> <dbl>
## 1     3     3  28.3      8   3050     1
## 2     4     3  22.5      0   1550     0
## 3     2     1  26        9   2300     1
## 4     4     3  24.8      0   2100     0
## 5     4     3  26        4   2600     1
## # ... with 168 more rows
…
Reading Delimited Data

Reading clean delimited data pretty easy!

Lets read in the ‘umps2012.txt’ file (‘>’ delimited)

Notice no column names provided

Year Month Day Home Away HPUmpire

read_delim("https://www4.stat.ncsu.edu/~online/datasets/umps2012.txt", delim = ">",
           col_names = c("Year", "Month", "Day", "Home", "Away", "HPUmpire"))

## # A tibble: 2,359 x 6
##    Year Month   Day Home  Away  HPUmpire        
##   <dbl> <dbl> <dbl> <chr> <chr> <chr>           
## 1  2012     4    12 MIN   LAA   D.J. Reyburn    
## 2  2012     4    12 SD    ARI   Marty Foster    
## 3  2012     4    12 WSH   CIN   Mike Everitt    
## 4  2012     4    12 PHI   MIA   Jeff Nelson     
## 5  2012     4    12 CHC   MIL   Fieldin Culbreth
## # ... with 2,354 more rows
…
