Summarizing Data: Graphical Displays via ggplot2
…
Generally, use a barplot!

ggplot2 barplots

Barplots via ggplot + geom_bar

Consider data on titanic passengers in titanic.csv

titanicData <- read_csv("../datasets/titanic.csv")
titanicData$survived <- as.factor(titanicData$survived)
levels(titanicData$survived) <- c("Died", "Survived")
titanicData

## # A tibble: 1,310 x 14
##   pclass survived name  sex      age sibsp parch ticket  fare cabin embarked
##    <dbl> <fct>    <chr> <chr>  <dbl> <dbl> <dbl> <chr>  <dbl> <chr> <chr>   
## 1      1 Survived Alle~ fema~ 29         0     0 24160   211. B5    S       
## 2      1 Survived Alli~ male   0.917     1     2 113781  152. C22 ~ S       
## 3      1 Died     Alli~ fema~  2         1     2 113781  152. C22 ~ S       
## 4      1 Died     Alli~ male  30         1     2 113781  152. C22 ~ S       
## 5      1 Died     Alli~ fema~ 25         1     2 113781  152. C22 ~ S       
## # ... with 1,305 more rows, and 3 more variables: boat <chr>, body <dbl>,
## #   home.dest <chr>
…
ggplot2 Plotting: Numeric Variables

Look at carbon dioxide (CO2) uptake data set

Response recorded: uptake CO2 uptake rates in grass plants

Environment manipulated: Treatment - chilled/nonchilled

Ambient CO2 specified and measured: conc

CO2 <- as_tibble(CO2)
CO2

## # A tibble: 84 x 5
##   Plant Type   Treatment   conc uptake
##   <ord> <fct>  <fct>      <dbl>  <dbl>
## 1 Qn1   Quebec nonchilled    95   16  
## 2 Qn1   Quebec nonchilled   175   30.4
## 3 Qn1   Quebec nonchilled   250   34.8
## 4 Qn1   Quebec nonchilled   350   37.2
## 5 Qn1   Quebec nonchilled   500   35.3
## # ... with 79 more rows
…
